18 Strings – COMP/STAT112 Notebook
…
Exercise 3

# Identify the 6 departments that offered the most sections
courses_clean |>
  group_by(dept) |>
  summarize(n = n()) |>
  arrange(desc(n))

# A tibble: 40 × 2
   dept      n
   <chr> <int>
 1 SPAN     45
 2 BIOL     44
 3 ENVI     38
 4 PSYC     37
 5 CHEM     33
 6 COMP     31
 7 ENGL     30
 8 ECON     29
 9 POLI     27
10 FREN     26
# ℹ 30 more rows
…
