12 Dates – COMP/STAT112 Notebook
…
Exercise 5

# How many days of data do we have for each state?
Birthdays |> 
  group_by(state) |>
  summarize(days = sum(day)) 

# A tibble: 51 × 2
   state   days
   <chr>  <int>
 1 AK    114936
 2 AL    115119
 3 AR    115058
 4 AZ    115057
 5 CA    115518
 6 CO    114905
 7 CT    115117
 8 DC    115087
 9 DE    114967
10 FL    114967
# ℹ 41 more rows
…
