11 Wrangling – COMP/STAT112 Notebook
…
# What does this do?
# gets the median republican percentage and median number of total votes of all the counties
elections_small |> 
  summarize(median_repub = median(repub_pct_20), 
            total_votes = sum(total_votes_20))

  median_repub total_votes
1        68.29   157949293

Exercise 8

elections_small |> 
  group_by(state_name)

# A tibble: 3,109 × 7
# Groups:   state_name [50]
   state_name county_name  total_votes_20 repub_pct_20 dem_pct_20 total_votes_16
   <chr>      <chr>                 <int>        <dbl>      <dbl>          <int>
 1 Alabama    Autauga Cou…          27770         71.4      27.0           24661
 2 Alabama    Baldwin Cou…         109679         76.2      22.4           94090
 3 Alabama    Barbour Cou…          10518         53.4      45.8           10390
 4 Alabama    Bibb County            9595         78.4      20.7            8748
 5 Alabama    Blount Coun…          27588         89.6       9.57          25384
 6 Alabama    Bullock Cou…           4613         24.8      74.7            4701
 7 Alabama    Butler Coun…           9488         57.5      41.8            8685
 8 Alabama    Calhoun Cou…          50983         68.8      29.8           47376
 9 Alabama    Chambers Co…          15284         57.3      41.6           13778
10 Alabama    Cherokee Co…          12301         86.0      13.2           10503
# ℹ 3,099 more rows
# ℹ 1 more variable: dem_pct_16 <dbl>
…
[1] "grouped_df" "tbl_df"     "tbl"        "data.frame"

# What does this do?
# (What if we didn't use group_by?)
# gets us the median GOP percentage and total votes for each state
# if we didn't use group_by, it would give us these statistics for all the states
elections_small |> 
  group_by(state_name) |> 
  summarize(median_repub = median(repub_pct_20), 
            total_votes = sum(total_votes_20)) 

# A tibble: 50 × 3
   state_name           median_repub total_votes
   <chr>                       <dbl>       <int>
 1 Alabama                      70.6     2323304
 2 Arizona                      57.9     3387326
 3 Arkansas                     72.1     1219069
 4 California                   44.8    17495906
 5 Colorado                     56.2     3256953
 6 Connecticut                  41.0     1824280
 7 Delaware                     47.1      504010
 8 District of Columbia          5.4      344356
 9 Florida                      64.6    11067456
10 Georgia                      68       4997716
# ℹ 40 more rows
…
