18 Joining – COMP/STAT112 Notebook
…
gpa_conversion <- tibble(
  grade = c("A+", "A", "A-", "B+", "B", "B-", "C+", "C", "C-", "D+", "D", "D-", "NC", "AU", "S"), 
  gp = c(4.3, 4, 3.7, 3.3, 3, 2.7, 2.3, 2, 1.7, 1.3, 1, 0.7, 0, NA, NA)
)

Part a

# How many total student enrollments are there in each department? 
# Order from high to low.
courses |>
  group_by(dept) |>
  summarize(total = sum(enroll)) |>
  arrange(desc(total))

# A tibble: 40 × 2
   dept  total
   <chr> <int>
 1 d      3046
 2 j      2312
 3 O      2178
 4 M      2129
 5 m      2105
 6 D      2003
 7 W      1960
 8 q      1859
 9 k      1824
10 F      1587
# ℹ 30 more rows
…
grades |>
  anti_join(cross_listed) |>
  left_join(gpa_conversion) |>
  left_join(courses) |>
  group_by(dept) |>
  summarize(gpa = mean(gp, na.rm=TRUE)) |>
  arrange(gpa)

Joining with `by = join_by(sessionID)`
Joining with `by = join_by(grade)`
Joining with `by = join_by(sessionID)`

# A tibble: 39 × 2
   dept    gpa
   <chr> <dbl>
 1 o      3.08
 2 M      3.10
 3 K      3.17
 4 G      3.18
 5 B      3.2 
 6 J      3.22
 7 T      3.23
 8 b      3.25
 9 F      3.30
10 d      3.31
# ℹ 29 more rows
…
